<svg xmlns="http://www.w3.org/2000/svg" width="37" height="40" viewBox="0 0 37 40">
    <g fill="#F7F7F7" fill-rule="evenodd">
        <path d="M18.313 13.333h-.03l.03 10L10 29.515c1.936 2.325 4.94 3.818 8.313 3.818 5.841 0 10.576-4.477 10.576-10s-4.735-10-10.576-10" transform="translate(.5)"/>
        <path d="M17.778 35.838c-7.02 0-12.73-5.665-12.73-12.627 0-6.962 5.71-12.626 12.73-12.626 7.02 0 12.73 5.664 12.73 12.626s-5.71 12.627-12.73 12.627zm17.604-23.041l-1.416-2.107c-.316-.47-.957-.598-1.43-.284l-2.253 1.49c-.174-.19-.352-.375-.536-.557-1.554-1.54-3.364-2.751-5.38-3.597-1.353-.568-2.761-.954-4.206-1.155V5.224h.906c.52 0 .942-.419.942-.935V.935c0-.516-.422-.935-.942-.935h-6.578c-.52 0-.943.419-.943.935v3.354c0 .516.422.935.943.935h.915v1.361c-1.448.201-2.86.588-4.216 1.157-2.016.846-3.826 2.056-5.38 3.597-.183.182-.361.368-.535.556l-2.253-1.49c-.474-.313-1.114-.186-1.43.285L.173 12.797c-.316.47-.188 1.105.287 1.419l2.192 1.45c-.167.33-.324.667-.47 1.01C1.297 18.745.85 20.945.85 23.21c0 2.266.448 4.464 1.331 6.536.853 2 2.073 3.794 3.627 5.336 1.554 1.54 3.364 2.751 5.38 3.597 2.088.876 4.306 1.32 6.59 1.32s4.501-.444 6.59-1.32c2.015-.846 3.825-2.056 5.38-3.597 1.553-1.542 2.774-3.337 3.626-5.336.883-2.072 1.331-4.27 1.331-6.536s-.448-4.464-1.33-6.536c-.147-.342-.304-.679-.472-1.01l2.193-1.45c.474-.313.602-.948.286-1.418z" transform="translate(.5)"/>
    </g>
</svg>
